{
  "schema": "https://example.com/rating",
  "place": 1,
  "createdDatetime": "2019-07-27T11:51:07+0200",
  "author": "Jane Doe",
  "ratings": {
    "User diversity": 4,
    "Accessibility": 3,
    "Activities": 5,
    "Governance": 3,
    "Low cost": 3
  }
}
